7 Exam 2 visualization – COMP/STAT112 Notebook
…
7.0.1.1 Research Question 2: What are the top 5 consuming countries by food category?

Code
top_5_by_cat <- fcc |>
  group_by(food_category) |>
  slice_max(order_by = consumption, n = 5)

print(top_5_by_cat)

# A tibble: 55 × 4
# Groups:   food_category [11]
   country   food_category consumption co2_emmission
   <chr>     <fct>               <dbl>         <dbl>
 1 Argentina Beef                 55.5        1712  
 2 Brazil    Beef                 39.2        1211. 
 3 USA       Beef                 36.2        1118. 
 4 Australia Beef                 33.9        1045. 
 5 Bermuda   Beef                 33.2        1023. 
 6 Japan     Eggs                 19.2          17.6
 7 Paraguay  Eggs                 18.8          17.3
 8 China     Eggs                 18.8          17.2
 9 Mexico    Eggs                 18.3          16.8
10 Ukraine   Eggs                 18.0          16.5
# ℹ 45 more rows
…
